district,subcounty,parish,village
Kumi,Atutur,Abubur,Abosan
Kumi,Atutur,Abubur,Abosan
Kumi,Atutur,Abubur,Abosan
Kumi,Atutur,Abubur,Abubur
Kumi,Atutur,Abubur,Abubur
Kumi,Atutur,Akalabai,Akalabai
Kumi,Atutur,Akalabai,Akalabai
Kumi,Atutur,Akalabai,Akalabai
Kumi,Atutur,Akalabai,Akalabai
Kumi,Atutur,Akalabai,Apuda
Kumi,Atutur,Akalabai,Apuda
Kumi,Atutur,Akalabai,Apuda
Kumi,Atutur,Akibui,Akibui
Kumi,Atutur,Akibui,Akibui
Kumi,Atutur,Akibui,Ogoloi
Kumi,Atutur,Akibui,Ogoloi
Kumi,Atutur,Apapai,Apapai
Kumi,Atutur,Apapai,Apapai
Kumi,Atutur,Apapai,Apapai
Kumi,Atutur,Apapai,Oswapai
Kumi,Atutur,Apapai,Oswapai
Kumi,Atutur,Aputon,Alikodo
Kumi,Atutur,Aputon,Alikodo
Kumi,Atutur,Aputon,Aputon
Kumi,Atutur,Aputon,Aputon
Kumi,Atutur,Ariet,Ariet
Kumi,Atutur,Ariet,Ariet
Kumi,Atutur,Ariet,Ariet
Kumi,Atutur,Ariet,Ocagoro
Kumi,Atutur,Ariet,Ocagoro
Kumi,Atutur,Aterai,Aterai
Kumi,Atutur,Aterai,Aterai
Kumi,Atutur,Aterai,Aterai
Kumi,Atutur,Aterai,Okanyumo
Kumi,Atutur,Aterai,Okanyumo
Kumi,Atutur,Atutur,Atutur
Kumi,Atutur,Atutur,Atutur
Kumi,Atutur,Atutur,Atutur
Kumi,Atutur,Atutur,Atutur
Kumi,Atutur,Atutur,Orapada
Kumi,Atutur,Atutur,Orapada
Kumi,Atutur,Atutur,Orapada
Kumi,Atutur,Atutur,Orapada
Kumi,Atutur,Kapokin,Kalungar
Kumi,Atutur,Kapokin,Kalungar
Kumi,Atutur,Kapokin,Kalungar
Kumi,Atutur,Kapokin,Kalungar
Kumi,Atutur,Kapokin,Kapokin
Kumi,Atutur,Kapokin,Kapokin
Kumi,Atutur,Kapokin,Kapokin
Kumi,Atutur,Kapokin,Kapokin
Kumi,Atutur,Kelim,Kelim
Kumi,Atutur,Kelim,Kelim
Kumi,Atutur,Kelim,Otidi
Kumi,Atutur,Kelim,Otidi
Kumi,Atutur,Kelim,Otidi
Kumi,Kanyum,Ajuket,Ajuket
Kumi,Kanyum,Ajuket,Ajuket
Kumi,Kanyum,Ajuket,Ajuket
Kumi,Kanyum,Ajuket,Kodocha
Kumi,Kanyum,Ajuket,Kodocha
Kumi,Kanyum,Ajuket,Kodocha
Kumi,Kanyum,Akisim,Akisim
Kumi,Kanyum,Akisim,Akisim
Kumi,Kanyum,Akisim,Kabwele
Kumi,Kanyum,Akisim,Kabwele
Kumi,Kanyum,Ariet,Ariet
Kumi,Kanyum,Ariet,Ariet
Kumi,Kanyum,Ariet,Ariet
Kumi,Kanyum,Ariet,Asalo
Kumi,Kanyum,Ariet,Asalo
Kumi,Kanyum,Kacha,Kabwongo
Kumi,Kanyum,Kacha,Kabwongo
Kumi,Kanyum,Kacha,Kacha
Kumi,Kanyum,Kacha,Kacha
Kumi,Kanyum,Kajamaka,Kajamaka
Kumi,Kanyum,Kajamaka,Kajamaka
Kumi,Kanyum,Kajamaka,Kajamaka
Kumi,Kanyum,Kajamaka,Kajamaka
Kumi,Kanyum,Kajamaka,Kajamaka
Kumi,Kanyum,Kajamaka,Opetoi
Kumi,Kanyum,Kajamaka,Opetoi
Kumi,Kanyum,Kamacha,Adodoi
Kumi,Kanyum,Kamacha,Adodoi
Kumi,Kanyum,Kamacha,Adodoi
Kumi,Kanyum,Kamacha,Kamacha
Kumi,Kanyum,Kamacha,Kamacha
Kumi,Kanyum,Kanyum,Kanyum
Kumi,Kanyum,Kanyum,Kanyum
Kumi,Kanyum,Kanyum,Oput
Kumi,Kanyum,Kanyum,Oput
Kumi,Kanyum,Kanyum,Oput
Kumi,Kanyum,Katilekori,Katilekori
Kumi,Kanyum,Katilekori,Katilekori
Kumi,Kanyum,Katilekori,Katilekori
Kumi,Kanyum,Katilekori,Otiisa
Kumi,Kanyum,Katilekori,Otiisa
Kumi,Kanyum,Katilekori,Otiisa
Kumi,Kanyum,Kogili,Kogili
Kumi,Kanyum,Kogili,Kogili
Kumi,Kanyum,Kogili,Obokora
Kumi,Kanyum,Ojie,Kamunyubi
Kumi,Kanyum,Ojie,Kamunyubi
Kumi,Kanyum,Ojie,Ojie
Kumi,Kanyum,Ojie,Ojie
Kumi,Kanyum,Ojie,Ojie
Kumi,Kanyum,Okeito,Okeito
Kumi,Kanyum,Okeito,Okeito
Kumi,Kanyum,Okeito,Ongario
Kumi,Kanyum,Okeito,Ongario
Kumi,Kanyum,Okeito,Ongario
Kumi,Kanyum,Olimai,Odotuno
Kumi,Kanyum,Olimai,Odotuno
Kumi,Kanyum,Olimai,Olimai
Kumi,Kanyum,Olimai,Olimai
Kumi,Kanyum,Olumot,Alemen
Kumi,Kanyum,Olumot,Alemen
Kumi,Kanyum,Olumot,Alemen
Kumi,Kanyum,Olumot,Olumot
Kumi,Kanyum,Olumot,Olumot
Kumi,Kanyum,Olumot,Olumot
Kumi,Kanyum,Omurang,Kajamaka
Kumi,Kanyum,Omurang,Kajamaka
Kumi,Kanyum,Omurang,Omurang
Kumi,Kanyum,Omurang,Omurang
Kumi,Kumi,Agolitom,Agolitom
Kumi,Kumi,Agolitom,Agolitom
Kumi,Kumi,Agolitom,Okichira
Kumi,Kumi,Agolitom,Okichira
Kumi,Kumi,Agule,Agule
Kumi,Kumi,Agule,Agule
Kumi,Kumi,Agule,Okomion
Kumi,Kumi,Agule,Okomion
Kumi,Kumi,Amejei,Amejei
Kumi,Kumi,Amejei,Amejei
Kumi,Kumi,Amejei,Amejei
Kumi,Kumi,Amejei,Rarak
Kumi,Kumi,Amejei,Rarak
Kumi,Kumi,Asinge,Asinge
Kumi,Kumi,Asinge,Asinge
Kumi,Kumi,Asinge,Asinge
Kumi,Kumi,Asinge,Ngabet
Kumi,Kumi,Asinge,Ngabet
Kumi,Kumi,Kabata,Kabata
Kumi,Kumi,Kabata,Kabata
Kumi,Kumi,Kabata,Kabata
Kumi,Kumi,Kabata,Odelo Fr
Kumi,Kumi,Kabata,Odiding
Kumi,Kumi,Kabata,Odiding
Kumi,Kumi,Kabata,Odiding
Kumi,Kumi,Kumi,Kumi
Kumi,Kumi,Kumi,Otaaba
Kumi,Kumi,Kumi,Otaaba
Kumi,Kumi,Okouba,Kadacar
Kumi,Kumi,Okouba,Kadacar
Kumi,Kumi,Okouba,Kadacar
Kumi,Kumi,Okouba,Okouba
Kumi,Kumi,Okouba,Okouba
Kumi,Kumi,Okouba,Okouba
Kumi,Kumi,Okouba,Okouba
Kumi,Kumi,Olungia,Aoloko
Kumi,Kumi,Olungia,Olungia
Kumi,Kumi,Olungia,Olungia
Kumi,Kumi,Olupe,Olupe
Kumi,Kumi,Olupe,Olupe
Kumi,Kumi,Olupe,Olupe
Kumi,Kumi,Olupe,Oosion
Kumi,Kumi,Olupe,Oosion
Kumi,Kumi,Omatenga,Ajesa
Kumi,Kumi,Omatenga,Ajesa
Kumi,Kumi,Omatenga,Omatenga
Kumi,Kumi,Omolokonyo,Angopet
Kumi,Kumi,Omolokonyo,Angopet
Kumi,Kumi,Omolokonyo,Omolokonyo
Kumi,Kumi,Omolokonyo,Omolokonyo
Kumi,Kumi,Oogoria,Moru
Kumi,Kumi,Oogoria,Oogoria
Kumi,Kumi,Otipe,Atiida
Kumi,Kumi,Otipe,Atiida
Kumi,Kumi,Otipe,Atiida
Kumi,Kumi,Otipe,Otipe
Kumi,Kumi,Otipe,Otipe
Kumi,Kumi Tc,Bazaar Ward,Angopet
Kumi,Kumi Tc,Bazaar Ward,Angopet
Kumi,Kumi Tc,Bazaar Ward,Angopet
Kumi,Kumi Tc,Bazaar Ward,Angopet
Kumi,Kumi Tc,Bazaar Ward,Angopet
Kumi,Kumi Tc,Bazaar Ward,Bazaar
Kumi,Kumi Tc,Bazaar Ward,Bazaar
Kumi,Kumi Tc,Bazaar Ward,Special Area
Kumi,Kumi Tc,Boma Ward,Boma North
Kumi,Kumi Tc,Boma Ward,Boma North
Kumi,Kumi Tc,Boma Ward,Boma South
Kumi,Kumi Tc,Kanyum Ward,Kanyum  B
Kumi,Kumi Tc,Kanyum Ward,Kanyum  B
Kumi,Kumi Tc,Kanyum Ward,Kanyum  B
Kumi,Kumi Tc,Kanyum Ward,Kanyum  B
Kumi,Kumi Tc,Kanyum Ward,Kanyum  B
Kumi,Kumi Tc,Kanyum Ward,Kanyum  B
Kumi,Kumi Tc,Kanyum Ward,Kanyum  B
Kumi,Kumi Tc,Kanyum Ward,Kanyum A
Kumi,Kumi Tc,Kanyum Ward,Kanyum A
Kumi,Kumi Tc,Tank,Osioda
Kumi,Kumi Tc,Tank,Osioda
Kumi,Kumi Tc,Tank,Tank
Kumi,Mukongoro,Agaria,Alukat
Kumi,Mukongoro,Agaria,Kelim Agaria
Kumi,Mukongoro,Agaria,Kelim Agaria
Kumi,Mukongoro,Akadot,Akadot
Kumi,Mukongoro,Akadot,Akadot
Kumi,Mukongoro,Akadot,Amosingo
Kumi,Mukongoro,Akadot,Amosingo
Kumi,Mukongoro,Kabukol,Aojamoroko
Kumi,Mukongoro,Kabukol,Aojamoroko
Kumi,Mukongoro,Kabukol,Kabukol
Kumi,Mukongoro,Kabukol,Kabukol
Kumi,Mukongoro,Kachaboi,Kachaboi
Kumi,Mukongoro,Kachaboi,Kachaboi
Kumi,Mukongoro,Kachaboi,Komolo
Kumi,Mukongoro,Kadami,Goria
Kumi,Mukongoro,Kadami,Goria
Kumi,Mukongoro,Kadami,Kadami
Kumi,Mukongoro,Kadami,Kadami
Kumi,Mukongoro,Kaderin,Kaderin
Kumi,Mukongoro,Kaderin,Kaderin
Kumi,Mukongoro,Kaderin,Odotoi
Kumi,Mukongoro,Kaderin,Odotoi
Kumi,Mukongoro,Kajamaka,Kajamaka
Kumi,Mukongoro,Kajamaka,Kajamaka
Kumi,Mukongoro,Kajamaka,Kajamaka
Kumi,Mukongoro,Kajamaka,Omusio
Kumi,Mukongoro,Kajamaka,Omusio
Kumi,Mukongoro,Kajamaka,Omusio
Kumi,Mukongoro,Kakures,Kakures
Kumi,Mukongoro,Kakures,Kakures
Kumi,Mukongoro,Kakures,Kituba
Kumi,Mukongoro,Kakures,Kituba
Kumi,Mukongoro,Kakures,Kituba
Kumi,Mukongoro,Kodokoto,Kanyamutamu
Kumi,Mukongoro,Kodokoto,Kanyamutamu
Kumi,Mukongoro,Kodokoto,Kodokoto
Kumi,Mukongoro,Kodokoto,Kodokoto
Kumi,Mukongoro,Mukongoro,Acaapa
Kumi,Mukongoro,Mukongoro,Acaapa
Kumi,Mukongoro,Mukongoro,Acaapa
Kumi,Mukongoro,Mukongoro,Mukongoro
Kumi,Mukongoro,Mukongoro,Mukongoro
Kumi,Mukongoro,Mukongoro,Mukongoro
Kumi,Mukongoro,Ogosoi,Kabura
Kumi,Mukongoro,Ogosoi,Kabura
Kumi,Mukongoro,Ogosoi,Ogosoi
Kumi,Mukongoro,Ogosoi,Ogosoi
Kumi,Mukongoro,Oladot,Okudu
Kumi,Mukongoro,Oladot,Okudu
Kumi,Mukongoro,Oladot,Okudu
Kumi,Mukongoro,Oladot,Oladot
Kumi,Mukongoro,Oladot,Oladot
Kumi,Mukongoro,Oleicho,Kapuwai
Kumi,Mukongoro,Oleicho,Kapuwai
Kumi,Mukongoro,Oleicho,Oleicho
Kumi,Mukongoro,Oleicho,Oleicho
Kumi,Mukongoro,Omerein,Odeidei
Kumi,Mukongoro,Omerein,Odeidei
Kumi,Mukongoro,Omerein,Omerein
Kumi,Mukongoro,Omerein,Omerein
Kumi,Mukongoro,Omerein,Omerein
Kumi,Mukongoro,Onyakelo,Adodoi
Kumi,Mukongoro,Onyakelo,Adodoi
Kumi,Mukongoro,Onyakelo,Adodoi
Kumi,Mukongoro,Onyakelo,Onyakelo
Kumi,Mukongoro,Onyakelo,Onyakelo
Kumi,Mukongoro,Onyakelo,Onyakelo
Kumi,Mukongoro,Osopotoit,Acunat
Kumi,Mukongoro,Osopotoit,Acunat
Kumi,Mukongoro,Osopotoit,Osopotoit
Kumi,Mukongoro,Osopotoit,Osopotoit
Kumi,Nyero,Agurut,Agurut
Kumi,Nyero,Agurut,Agurut
Kumi,Nyero,Agurut,Agurut
Kumi,Nyero,Agurut,Olilim
Kumi,Nyero,Agurut,Olilim
Kumi,Nyero,Agurut,Olilim
Kumi,Nyero,Aligoi,Aligoi
Kumi,Nyero,Aligoi,Aligoi
Kumi,Nyero,Aligoi,Komolo
Kumi,Nyero,Aligoi,Komolo
Kumi,Nyero,Ariet,Areit
Kumi,Nyero,Ariet,Areit
Kumi,Nyero,Ariet,Areit
Kumi,Nyero,Ariet,Areit
Kumi,Nyero,Ariet,Omatakiria
Kumi,Nyero,Ariet,Omatakiria
Kumi,Nyero,Ariet,Omatakiria
Kumi,Nyero,Ariet,Omatakiria
Kumi,Nyero,Ariet,Omatakiria
Kumi,Nyero,Kalapata,Acutai
Kumi,Nyero,Kalapata,Acutai
Kumi,Nyero,Kalapata,Acutai
Kumi,Nyero,Kalapata,Kalapata
Kumi,Nyero,Kalapata,Kalapata
Kumi,Nyero,Kalapata,Kalapata
Kumi,Nyero,Kalapata,Kalapata
Kumi,Nyero,Kalapata,Kalapata
Kumi,Nyero,Kalapata,Kalapata
Kumi,Nyero,Kamenya,Kamenya
Kumi,Nyero,Kamenya,Kamenya
Kumi,Nyero,Kamenya,Okanyapuro
Kumi,Nyero,Kamenya,Okanyapuro
Kumi,Nyero,Kodike,Kees
Kumi,Nyero,Kodike,Kees
Kumi,Nyero,Kodike,Kodike
Kumi,Nyero,Kodike,Kodike
Kumi,Nyero,Kodike,Kodike
Kumi,Nyero,Moruita,Moru-ikara
Kumi,Nyero,Moruita,Moru-ikara
Kumi,Nyero,Moruita,Moru-ikara
Kumi,Nyero,Moruita,Moruita
Kumi,Nyero,Moruita,Moruita
Kumi,Nyero,Moruita,Moruita
Kumi,Nyero,Nyero,Nyero
Kumi,Nyero,Nyero,Nyero
Kumi,Nyero,Nyero,Nyero
Kumi,Nyero,Nyero,Nyero
Kumi,Nyero,Nyero,Obosoi
Kumi,Nyero,Nyero,Obosoi
Kumi,Nyero,Odipai,Atekwa
Kumi,Nyero,Odipai,Atekwa
Kumi,Nyero,Odipai,Odipai
Kumi,Nyero,Odipai,Odipai
Kumi,Nyero,Ogooma,Ogooma
Kumi,Nyero,Ogooma,Ogooma
Kumi,Nyero,Ogooma,Ominai
Kumi,Nyero,Ogooma,Ominai
Kumi,Ongino,Akide,Aguya
Kumi,Ongino,Akide,Aguya
Kumi,Ongino,Akide,Akide
Kumi,Ongino,Akide,Akide
Kumi,Ongino,Akide,Akide
Kumi,Ongino,Akum,Akuoro
Kumi,Ongino,Akum,Akuoro
Kumi,Ongino,Akum,Akuoro
Kumi,Ongino,Akum,Kabwangasi
Kumi,Ongino,Akum,Kabwangasi
Kumi,Ongino,Akum,Morio
Kumi,Ongino,Akum,Morio
Kumi,Ongino,Asinge,Aderina
Kumi,Ongino,Asinge,Asinge
Kumi,Ongino,Ceele,Ceele
Kumi,Ongino,Ceele,Ceele
Kumi,Ongino,Ceele,Nyakoi
Kumi,Ongino,Ceele,Nyakoi
Kumi,Ongino,Kachaboi,Adekis
Kumi,Ongino,Kachaboi,Adekis
Kumi,Ongino,Kachaboi,Kachaboi
Kumi,Ongino,Kachaboi,Kachaboi
Kumi,Ongino,Kachaboi,Kachaboi
Kumi,Ongino,Kachaboi,Kochopo
Kumi,Ongino,Kachaboi,Kochopo
Kumi,Ongino,Kachelakwany,Akolitorom
Kumi,Ongino,Kachelakwany,Akolitorom
Kumi,Ongino,Kachelakwany,Kachelakwany
Kumi,Ongino,Kachelakwany,Kachelakwany
Kumi,Ongino,Kanapa,Kanapa
Kumi,Ongino,Kanapa,Kanapa
Kumi,Ongino,Kanapa,Kanapa
Kumi,Ongino,Kanapa,Oduoro
Kumi,Ongino,Kanapa,Oduoro
Kumi,Ongino,Kapasak,Akuoro
Kumi,Ongino,Kapasak,Akuoro
Kumi,Ongino,Kapasak,Akuoro
Kumi,Ongino,Kapasak,Kapasak
Kumi,Ongino,Kapasak,Kapasak
Kumi,Ongino,Kapasak,Kapasak
Kumi,Ongino,Kapolin,Atirir
Kumi,Ongino,Kapolin,Atirir
Kumi,Ongino,Kapolin,Kareu
Kumi,Ongino,Kapolin,Kareu
Kumi,Ongino,Kapolin,Munyal
Kumi,Ongino,Kapolin,Munyal
Kumi,Ongino,Kodukul,Kacherede
Kumi,Ongino,Kodukul,Kacherede
Kumi,Ongino,Kodukul,Kodukul
Kumi,Ongino,Kodukul,Kodukul
Kumi,Ongino,Kongura,Kangole
Kumi,Ongino,Kongura,Kangole
Kumi,Ongino,Kongura,Kongura
Kumi,Ongino,Morupeded,Kakerekwam
Kumi,Ongino,Morupeded,Kakerekwam
Kumi,Ongino,Morupeded,Morupeded
Kumi,Ongino,Morupeded,Morupeded
Kumi,Ongino,Obotia,Obotia
Kumi,Ongino,Obotia,Obotia
Kumi,Ongino,Obotia,Obotia
Kumi,Ongino,Obotia,Totolim
Kumi,Ongino,Obotia,Totolim
Kumi,Ongino,Obotia,Totolim
Kumi,Ongino,Obotia,Totolim
Kumi,Ongino,Obotia,Totolim
Kumi,Ongino,Ongino,Amuria
Kumi,Ongino,Ongino,Amuria
Kumi,Ongino,Ongino,Amuria
Kumi,Ongino,Ongino,Oduka
Kumi,Ongino,Ongino,Oduka
Kumi,Ongino,Ongino,Ongino
Kumi,Ongino,Ongino,Ongino
Kumi,Ongino,Ongino,Ongino
Kumi,Ongino,Oseera,Aaduka
Kumi,Ongino,Oseera,Aaduka
Kumi,Ongino,Oseera,Aaduka
Kumi,Ongino,Oseera,Aaduka
Kumi,Ongino,Oseera,Oseera
Kumi,Ongino,Oseera,Oseera
Kumi,Ongino,Oseera,Oseera
Kumi,Ongino,Oseera,Oseera
Kumi,Ongino,Tisai,Aacera
Kumi,Ongino,Tisai,Tisai
