group,crop
cereals,fingermillet
cereals,rice
cereals,sorghum
legumes,beans
legumes,cowpea
legumes,pigeon
legumes,climb
legumes,maize
legumes,greengram
Oil crops,groundnut
Oil crops,soybean
Oil crops,simsim
tubers,irishpotato
tubers,cassava
tubers,sweetpotato
others,pasture
